[gd_scene load_steps=4 format=2]

[ext_resource path="res://Objects/Replete/Replete-ant.tscn" type="PackedScene" id=1]
[ext_resource path="res://Objects/Replete/replete.gd" type="Script" id=2]

[sub_resource type="SphereShape" id=1]
radius = 5.0

[node name="Replete" type="Spatial"]
transform = Transform( 3, 0, 0, 0, 3, 0, 0, 0, 3, 0, 2.93308, 0 )
script = ExtResource( 2 )

[node name="Replete-ant" parent="." instance=ExtResource( 1 )]
transform = Transform( 1, 0, 0, 0, 1, 0, 0, 0, 1, 0, -1, 0 )

[node name="DetectionArea" type="Area" parent="."]
transform = Transform( 1, 0, 0, 0, 1, 0, 0, 0, 1, 0, -1, 0 )

[node name="CollisionShape" type="CollisionShape" parent="DetectionArea"]
shape = SubResource( 1 )

[connection signal="area_entered" from="DetectionArea" to="." method="_on_DetectionArea_area_entered"]
[connection signal="body_entered" from="DetectionArea" to="." method="_on_DetectionArea_body_entered"]
[connection signal="body_exited" from="DetectionArea" to="." method="_on_DetectionArea_body_exited"]
