[gd_scene load_steps=2 format=2]

[ext_resource path="res://Objects/Tools/trail_connection.gd" type="Script" id=1]

[node name="FrontConnection" type="Position3D" groups=[
"TrailConnection",
]]
script = ExtResource( 1 )

[node name="BackConnection" type="Position3D" parent="."]
transform = Transform( 1, 0, 0, 0, 1, 0, 0, 0, 1, 0, 0, 20 )

[node name="ImmediateGeometry" type="ImmediateGeometry" parent="."]
visible = false

[node name="Timer" type="Timer" parent="."]

[node name="Tween" type="Tween" parent="."]

[connection signal="timeout" from="Timer" to="." method="_on_Timer_timeout"]
